Capítulo 5 Casos prácticos | Visualización y geolocalización de datos con R
…
library(sf)

tmin_sf <- st_as_sf(tmin,
  coords = c("longitud", "latitud"),
  crs = 4326
)

tmin_sf
#> Simple feature collection with 1066 features and 3 fields
#> Geometry type: POINT
#> Dimension:     XY
#> Bounding box:  xmin: -9.291389 ymin: 35.27639 xmax: 4.215556 ymax: 43.78611
#> Geodetic CRS:  WGS 84
#> # A tibble: 1,066 x 4
#>    fecha      indicativo  tmin             geometry
#>  * <date>     <chr>      <dbl>          <POINT [°]>
#>  1 2021-01-06 4358X       -4.7 (-5.880556 38.95556)
#>  2 2021-01-06 4220X       -7   (-4.616389 39.08861)
#>  3 2021-01-06 6106X        4.7 (-4.748333 37.02944)
#>  4 2021-01-06 9698U       -6.8  (0.865278 42.20528)
#>  5 2021-01-06 4410X       -3.4 (-6.385556 38.91583)
#>  6 2021-01-06 1331A        1   (-7.031389 43.52472)
#>  7 2021-01-06 1690A       -0.1 (-7.859722 42.32528)
#>  8 2021-01-06 8489X       -8   (-0.255833 40.43333)
#>  9 2021-01-06 8025         2    (-0.494167 38.3725)
#> 10 2021-01-06 9784P      -10       (0.224722 42.63)
#> # ... with 1,056 more rows
…
